UID: 2a698d43
Nt: 3bae032d
{Nr}: c494a1d2
{Ar}: 6e968642
{At}: 8466059e
nt': 7fcf34c3
nt'': 869dbbd5
ks2: 1159b281
ks3: 02fbbe4b
ks1: 644ed2e0
Nr: a0da7332
Found Key: [e3 18 52 51 ff ff]

UID xor Nt: 11c78e6e
Found Key: [ff ff ff ff ff ff]

